{
    "dbn": "02M551",
    "school_name": "Urban Assembly New York Harbor School",
    "boro": "M",
    "overview_paragraph": "Urban Assembly New York Harbor School focuses on Marine Science, Marine Technology, and Marine Policy. We believe in learning by doing. Students should expect to spend time outdoors in sites all over New York Harbor in all seasons. With our partners, we work to develop authentic activities on, around, and related-to the water that create a sense of responsibility to New York Harbor and develop a new generation of maritime advocates, enthusiasts, workers, and decision-makers. New York Harbor SchoolÂ’s location on Governors Island is easily accessible from Lower Manhattan, Brooklyn, and Staten Island.",
    "school_10th_seats": "1",
    "academicopportunities1": "CTE program(s) in: Agriculture, Food and Natural Resources, Manufacturing Production, Transportation, Distribution & Logistics",
    "academicopportunities2": "All ninth graders take a year-long field class called Introduction to New York Harbor.",
    "academicopportunities3": "At the end of ninth grade, each student chooses a CTE program of study in marine science and marine technology.",
    "academicopportunities4": "Each program of study concludes with a senior internship at a relevant maritime or marine-related business in the New York City area.",
    "ell_programs": "English as a New Language",
    "language_classes": "Latin, Spanish",
    "advancedplacement_courses": "AP Calculus, AP English",
    "diplomaendorsements": "CTE, Math, Science",
    "neighborhood": "Governors Island",
    "location": "10 South Street, Slip 7, Manhattan NY 10004 (40.689493, -74.018941)",
    "phone_number": "212-458-0800",
    "fax_number": "212-458-0801",
    "school_email": "info@newyorkharborschool.org",
    "website": "www.newyorkharborschool.org",
    "subway": "N/A",
    "bus": "N/A",
    "grades2018": "9-12",
    "finalgrades": "9-12",
    "total_students": "422",
    "start_time": "8:15am",
    "end_time": "4pm",
    "addtl_info1": "Internships; Summer Orientation; Uniform",
    "extracurricular_activities": "Maritime: Aquabotics, Fishing, Boat Building, Marine Systems Technology, Vessel Operations; Sustainability: Composting, Garden, Harbor Corps, Harbor Seals; Other: National Honor Society (NHS), National Park Service, Newspaper, Student Advisors Instilling Leadership (SAIL), Yearbook",
    "school_sports": "Fishing, Rowing, Sailing, Swimming",
    "graduation_rate": "0.778999984",
    "attendance_rate": "0.899999976",
    "pct_stu_enough_variety": "0.75",
    "college_career_rate": "0.51700002",
    "pct_stu_safe": "0.889999986",
    "school_accessibility_description": "1",
    "prgdesc1": "Students choose from one of the following programs: Aquaculture, Marine Biology Research, or Ocean Engineering. Students may receive corresponding certifications for each program, such as Geographic Information System certification or US Safe Boaters License.",
    "prgdesc2": "Students choose from one of the following programs: Marine Systems Technology, Vessel Operations, or Professional SCUBA diving. Students may receive corresponding certifications for each program, such as Open Water Diver or US Power boating certification.",
    "offer_rate1": "Â—60% of offers went to this group",
    "offer_rate2": "Â—51% of offers went to this group",
    "program1": "Marine Science",
    "program2": "Marine Technology",
    "code1": "K51A",
    "code2": "K51B",
    "interest1": "Science & Math",
    "interest2": "Science & Math",
    "method1": "Limited Unscreened",
    "method2": "Limited Unscreened",
    "seats9ge1": "90",
    "seats9ge2": "45",
    "grade9gefilledflag1": "Y",
    "grade9gefilledflag2": "N",
    "grade9geapplicants1": "346",
    "grade9geapplicants2": "226",
    "seats9swd1": "18",
    "seats9swd2": "9",
    "grade9swdfilledflag1": "Y",
    "grade9swdfilledflag2": "Y",
    "grade9swdapplicants1": "81",
    "grade9swdapplicants2": "66",
    "seats101": "YesÂ–10",
    "seats102": "Yes-5",
    "admissionspriority11": "Priority to New York City residents who attend an information session",
    "admissionspriority12": "Priority to New York City residents who attend an information session",
    "admissionspriority21": "Then to New York City residents",
    "admissionspriority22": "Then to New York City residents",
    "grade9geapplicantsperseat1": "4",
    "grade9geapplicantsperseat2": "5",
    "grade9swdapplicantsperseat1": "5",
    "grade9swdapplicantsperseat2": "7",
    "primary_address_line_1": "10 South Street Slip 7",
    "city": "Manhattan",
    "zip": "10004",
    "state_code": "NY",
    "latitude": "40.68949",
    "longitude": "-74.0189",
    "community_board": "1",
    "council_district": "1",
    "census_tract": "9",
    "bin": "1000003",
    "bbl": "1000020002",
    "nta": "Battery Park City-Lower Manhattan                                          ",
    "borough": "MANHATTAN"
}
